…
twoSmaSig <- indSeg(list(nfast = 35, nslow = 63), NULL,
                    datos = datos30M_bch, indName = 'smaTwo')

ordenSLM <- OrdenesSLMovil(twoSmaSig, datos30M_bch, 0.03)

tbl_trans <- fun.tran(ordenSLM, datos30M_bch)

tbl_trans
```

    ## # A tibble: 132 x 5
    ##    tran.num  retorno date.entrada        date.salida         cum.retorno
    ##       <dbl>    <dbl> <dttm>              <dttm>                    <dbl>
    ##  1        1 -0.0388  2018-01-06 17:00:00 2018-01-06 21:30:00        96.1
    ##  2        2  0.0649  2018-01-08 18:30:00 2018-01-10 09:30:00       102. 
    ##  3        3 -0.00485 2018-01-12 08:00:00 2018-01-12 11:00:00       102. 
    ##  4        4 -0.0269  2018-01-12 21:00:00 2018-01-13 04:30:00        99.1
    ##  5        5 -0.0167  2018-01-13 13:30:00 2018-01-13 15:30:00        97.5
    ##  6        6 -0.0197  2018-01-13 19:30:00 2018-01-14 17:00:00        95.5
    ##  7        7 -0.0322  2018-01-18 11:00:00 2018-01-18 23:00:00        92.5
    ##  8        8 -0.0272  2018-01-21 00:00:00 2018-01-21 03:00:00        90.0
    ##  9        9 -0.0105  2018-01-22 07:00:00 2018-01-22 11:30:00        89.0
    ## 10       10 -0.0209  2018-01-25 17:00:00 2018-01-26 06:30:00        87.2
    ## # … with 122 more rows
…
sigmix <- mix.ordenConfirm(twoSmaSig, adxSig)

# orden <- Ordenes(sigmix)

ordenSLM <- OrdenesSLMovil(sigmix, datos30M_bch, 0.028)

tbl_trans <- fun.tran(ordenSLM, datos30M_bch)

tbl_trans
```

    ## # A tibble: 42 x 5
    ##    tran.num  retorno date.entrada        date.salida         cum.retorno
    ##       <dbl>    <dbl> <dttm>              <dttm>                    <dbl>
    ##  1        1 -0.0255  2018-01-07 10:00:00 2018-01-07 14:00:00        97.5
    ##  2        2 -0.0251  2018-01-13 17:00:00 2018-01-14 21:00:00        95.0
    ##  3        3 -0.00287 2018-01-26 03:30:00 2018-01-26 04:00:00        94.7
    ##  4        4 -0.00289 2018-01-28 13:30:00 2018-01-30 00:00:00        94.5
    ##  5        5  0.0829  2018-02-08 11:30:00 2018-02-08 23:00:00       102. 
    ##  6        6 -0.0321  2018-03-01 10:00:00 2018-03-02 00:00:00        99.0
    ##  7        7  0.00579 2018-03-10 01:30:00 2018-03-12 09:30:00        99.6
    ##  8        8 -0.0262  2018-03-14 20:30:00 2018-03-15 02:00:00        97.0
    ##  9        9 -0.0316  2018-03-16 16:30:00 2018-03-16 21:30:00        93.9
    ## 10       10 -0.0130  2018-03-20 01:00:00 2018-03-21 07:30:00        92.7
    ## # … with 32 more rows
…
